<?xml version="1.0" encoding="UTF-8" standalone="no"?>
<!-- Created with Inkscape (http://www.inkscape.org/) -->

<svg
   xmlns:osb="http://www.openswatchbook.org/uri/2009/osb"
   xmlns:dc="http://purl.org/dc/elements/1.1/"
   xmlns:cc="http://creativecommons.org/ns#"
   xmlns:rdf="http://www.w3.org/1999/02/22-rdf-syntax-ns#"
   xmlns:svg="http://www.w3.org/2000/svg"
   xmlns="http://www.w3.org/2000/svg"
   xmlns:sodipodi="http://sodipodi.sourceforge.net/DTD/sodipodi-0.dtd"
   xmlns:inkscape="http://www.inkscape.org/namespaces/inkscape"
   width="210mm"
   height="297mm"
   viewBox="0 0 210 297"
   version="1.1"
   id="svg8"
   inkscape:version="0.92.4 (5da689c313, 2019-01-14)"
   sodipodi:docname="04-01-concept-state-machine_2.svg">
  <defs
     id="defs2">
    <marker
       inkscape:stockid="Arrow1Lend"
       orient="auto"
       refY="0.0"
       refX="0.0"
       id="marker7663"
       style="overflow:visible;"
       inkscape:isstock="true">
      <path
         id="path7661"
         d="M 0.0,0.0 L 5.0,-5.0 L -12.5,0.0 L 5.0,5.0 L 0.0,0.0 z "
         style="fill-rule:evenodd;stroke:#000000;stroke-width:1pt;stroke-opacity:1;fill:#000000;fill-opacity:1"
         transform="scale(0.8) rotate(180) translate(12.5,0)" />
    </marker>
    <marker
       inkscape:isstock="true"
       style="overflow:visible;"
       id="marker7545"
       refX="0.0"
       refY="0.0"
       orient="auto"
       inkscape:stockid="Arrow1Lend"
       inkscape:collect="always">
      <path
         transform="scale(0.8) rotate(180) translate(12.5,0)"
         style="fill-rule:evenodd;stroke:#000000;stroke-width:1pt;stroke-opacity:1;fill:#000000;fill-opacity:1"
         d="M 0.0,0.0 L 5.0,-5.0 L -12.5,0.0 L 5.0,5.0 L 0.0,0.0 z "
         id="path7543" />
    </marker>
    <marker
       inkscape:stockid="Arrow1Lend"
       orient="auto"
       refY="0.0"
       refX="0.0"
       id="marker7431"
       style="overflow:visible;"
       inkscape:isstock="true"
       inkscape:collect="always">
      <path
         id="path7429"
         d="M 0.0,0.0 L 5.0,-5.0 L -12.5,0.0 L 5.0,5.0 L 0.0,0.0 z "
         style="fill-rule:evenodd;stroke:#000000;stroke-width:1pt;stroke-opacity:1;fill:#000000;fill-opacity:1"
         transform="scale(0.8) rotate(180) translate(12.5,0)" />
    </marker>
    <marker
       inkscape:isstock="true"
       style="overflow:visible;"
       id="marker7201"
       refX="0.0"
       refY="0.0"
       orient="auto"
       inkscape:stockid="Arrow1Lend"
       inkscape:collect="always">
      <path
         transform="scale(0.8) rotate(180) translate(12.5,0)"
         style="fill-rule:evenodd;stroke:#000000;stroke-width:1pt;stroke-opacity:1;fill:#000000;fill-opacity:1"
         d="M 0.0,0.0 L 5.0,-5.0 L -12.5,0.0 L 5.0,5.0 L 0.0,0.0 z "
         id="path7199" />
    </marker>
    <marker
       inkscape:stockid="Arrow1Lend"
       orient="auto"
       refY="0.0"
       refX="0.0"
       id="marker7101"
       style="overflow:visible;"
       inkscape:isstock="true"
       inkscape:collect="always">
      <path
         id="path7099"
         d="M 0.0,0.0 L 5.0,-5.0 L -12.5,0.0 L 5.0,5.0 L 0.0,0.0 z "
         style="fill-rule:evenodd;stroke:#000000;stroke-width:1pt;stroke-opacity:1;fill:#000000;fill-opacity:1"
         transform="scale(0.8) rotate(180) translate(12.5,0)" />
    </marker>
    <marker
       inkscape:isstock="true"
       style="overflow:visible;"
       id="marker6869"
       refX="0.0"
       refY="0.0"
       orient="auto"
       inkscape:stockid="Arrow1Lend"
       inkscape:collect="always">
      <path
         transform="scale(0.8) rotate(180) translate(12.5,0)"
         style="fill-rule:evenodd;stroke:#000000;stroke-width:1pt;stroke-opacity:1;fill:#000000;fill-opacity:1"
         d="M 0.0,0.0 L 5.0,-5.0 L -12.5,0.0 L 5.0,5.0 L 0.0,0.0 z "
         id="path6867" />
    </marker>
    <marker
       inkscape:stockid="Arrow1Lend"
       orient="auto"
       refY="0.0"
       refX="0.0"
       id="marker6775"
       style="overflow:visible;"
       inkscape:isstock="true"
       inkscape:collect="always">
      <path
         id="path6773"
         d="M 0.0,0.0 L 5.0,-5.0 L -12.5,0.0 L 5.0,5.0 L 0.0,0.0 z "
         style="fill-rule:evenodd;stroke:#000000;stroke-width:1pt;stroke-opacity:1;fill:#000000;fill-opacity:1"
         transform="scale(0.8) rotate(180) translate(12.5,0)" />
    </marker>
    <marker
       inkscape:isstock="true"
       style="overflow:visible;"
       id="marker6687"
       refX="0.0"
       refY="0.0"
       orient="auto"
       inkscape:stockid="Arrow1Lend"
       inkscape:collect="always">
      <path
         transform="scale(0.8) rotate(180) translate(12.5,0)"
         style="fill-rule:evenodd;stroke:#000000;stroke-width:1pt;stroke-opacity:1;fill:#000000;fill-opacity:1"
         d="M 0.0,0.0 L 5.0,-5.0 L -12.5,0.0 L 5.0,5.0 L 0.0,0.0 z "
         id="path6685" />
    </marker>
    <marker
       inkscape:stockid="Arrow1Lend"
       orient="auto"
       refY="0.0"
       refX="0.0"
       id="marker6605"
       style="overflow:visible;"
       inkscape:isstock="true"
       inkscape:collect="always">
      <path
         id="path6603"
         d="M 0.0,0.0 L 5.0,-5.0 L -12.5,0.0 L 5.0,5.0 L 0.0,0.0 z "
         style="fill-rule:evenodd;stroke:#000000;stroke-width:1pt;stroke-opacity:1;fill:#000000;fill-opacity:1"
         transform="scale(0.8) rotate(180) translate(12.5,0)" />
    </marker>
    <marker
       inkscape:isstock="true"
       style="overflow:visible;"
       id="marker6529"
       refX="0.0"
       refY="0.0"
       orient="auto"
       inkscape:stockid="Arrow1Lend"
       inkscape:collect="always">
      <path
         transform="scale(0.8) rotate(180) translate(12.5,0)"
         style="fill-rule:evenodd;stroke:#000000;stroke-width:1pt;stroke-opacity:1;fill:#000000;fill-opacity:1"
         d="M 0.0,0.0 L 5.0,-5.0 L -12.5,0.0 L 5.0,5.0 L 0.0,0.0 z "
         id="path6527" />
    </marker>
    <marker
       inkscape:stockid="Arrow1Lend"
       orient="auto"
       refY="0.0"
       refX="0.0"
       id="marker6479"
       style="overflow:visible;"
       inkscape:isstock="true"
       inkscape:collect="always">
      <path
         id="path6477"
         d="M 0.0,0.0 L 5.0,-5.0 L -12.5,0.0 L 5.0,5.0 L 0.0,0.0 z "
         style="fill-rule:evenodd;stroke:#000000;stroke-width:1pt;stroke-opacity:1;fill:#000000;fill-opacity:1"
         transform="scale(0.8) rotate(180) translate(12.5,0)" />
    </marker>
    <marker
       inkscape:isstock="true"
       style="overflow:visible;"
       id="marker6295"
       refX="0.0"
       refY="0.0"
       orient="auto"
       inkscape:stockid="Arrow1Lend"
       inkscape:collect="always">
      <path
         transform="scale(0.8) rotate(180) translate(12.5,0)"
         style="fill-rule:evenodd;stroke:#000000;stroke-width:1pt;stroke-opacity:1;fill:#000000;fill-opacity:1"
         d="M 0.0,0.0 L 5.0,-5.0 L -12.5,0.0 L 5.0,5.0 L 0.0,0.0 z "
         id="path6293" />
    </marker>
    <marker
       inkscape:stockid="Arrow1Lend"
       orient="auto"
       refY="0.0"
       refX="0.0"
       id="marker5671"
       style="overflow:visible;"
       inkscape:isstock="true">
      <path
         id="path5669"
         d="M 0.0,0.0 L 5.0,-5.0 L -12.5,0.0 L 5.0,5.0 L 0.0,0.0 z "
         style="fill-rule:evenodd;stroke:#000000;stroke-width:1pt;stroke-opacity:1;fill:#000000;fill-opacity:1"
         transform="scale(0.8) rotate(180) translate(12.5,0)" />
    </marker>
    <marker
       inkscape:stockid="Arrow1Lend"
       orient="auto"
       refY="0.0"
       refX="0.0"
       id="marker5629"
       style="overflow:visible;"
       inkscape:isstock="true">
      <path
         id="path5627"
         d="M 0.0,0.0 L 5.0,-5.0 L -12.5,0.0 L 5.0,5.0 L 0.0,0.0 z "
         style="fill-rule:evenodd;stroke:#000000;stroke-width:1pt;stroke-opacity:1;fill:#000000;fill-opacity:1"
         transform="scale(0.8) rotate(180) translate(12.5,0)" />
    </marker>
    <marker
       inkscape:stockid="Arrow1Lend"
       orient="auto"
       refY="0.0"
       refX="0.0"
       id="Arrow1Lend"
       style="overflow:visible;"
       inkscape:isstock="true">
      <path
         id="path4886"
         d="M 0.0,0.0 L 5.0,-5.0 L -12.5,0.0 L 5.0,5.0 L 0.0,0.0 z "
         style="fill-rule:evenodd;stroke:#000000;stroke-width:1pt;stroke-opacity:1;fill:#000000;fill-opacity:1"
         transform="scale(0.8) rotate(180) translate(12.5,0)" />
    </marker>
    <marker
       inkscape:stockid="Arrow2Lend"
       orient="auto"
       refY="0.0"
       refX="0.0"
       id="marker5175"
       style="overflow:visible;"
       inkscape:isstock="true">
      <path
         id="path5173"
         style="fill-rule:evenodd;stroke-width:0.625;stroke-linejoin:round;stroke:#000000;stroke-opacity:1;fill:#000000;fill-opacity:1"
         d="M 8.7185878,4.0337352 L -2.2072895,0.016013256 L 8.7185884,-4.0017078 C 6.9730900,-1.6296469 6.9831476,1.6157441 8.7185878,4.0337352 z "
         transform="scale(1.1) rotate(180) translate(1,0)" />
    </marker>
    <marker
       inkscape:stockid="Arrow2Lend"
       orient="auto"
       refY="0.0"
       refX="0.0"
       id="Arrow2Lend"
       style="overflow:visible;"
       inkscape:isstock="true">
      <path
         id="path4904"
         style="fill-rule:evenodd;stroke-width:0.625;stroke-linejoin:round;stroke:#000000;stroke-opacity:1;fill:#000000;fill-opacity:1"
         d="M 8.7185878,4.0337352 L -2.2072895,0.016013256 L 8.7185884,-4.0017078 C 6.9730900,-1.6296469 6.9831476,1.6157441 8.7185878,4.0337352 z "
         transform="scale(1.1) rotate(180) translate(1,0)" />
    </marker>
    <linearGradient
       id="linearGradient4524"
       osb:paint="solid">
      <stop
         style="stop-color:#000000;stop-opacity:1;"
         offset="0"
         id="stop4522" />
    </linearGradient>
  </defs>
  <sodipodi:namedview
     id="base"
     pagecolor="#ffffff"
     bordercolor="#666666"
     borderopacity="1.0"
     inkscape:pageopacity="0.0"
     inkscape:pageshadow="2"
     inkscape:zoom="0.9899495"
     inkscape:cx="236.21081"
     inkscape:cy="761.9888"
     inkscape:document-units="mm"
     inkscape:current-layer="layer1"
     showgrid="false"
     showguides="false"
     inkscape:window-width="1920"
     inkscape:window-height="1017"
     inkscape:window-x="-8"
     inkscape:window-y="-8"
     inkscape:window-maximized="1" />
  <metadata
     id="metadata5">
    <rdf:RDF>
      <cc:Work
         rdf:about="">
        <dc:format>image/svg+xml</dc:format>
        <dc:type
           rdf:resource="http://purl.org/dc/dcmitype/StillImage" />
        <dc:title></dc:title>
      </cc:Work>
    </rdf:RDF>
  </metadata>
  <g
     inkscape:label="Ebene 1"
     inkscape:groupmode="layer"
     id="layer1">
    <circle
       style="fill:none;fill-opacity:1;stroke:#000000;stroke-width:0.26458332;stroke-opacity:1"
       id="path4536"
       cx="45.687534"
       cy="13.961555"
       r="12.828938" />
    <circle
       style="fill:#000000;fill-opacity:1;stroke:#000000;stroke-width:0.26458332;stroke-opacity:1"
       id="path4538"
       cx="45.687534"
       cy="13.961555"
       r="5.7462945" />
    <ellipse
       id="path4520"
       cx="31.013741"
       cy="45.644505"
       rx="19.109772"
       ry="11.22532"
       style="fill:none;fill-opacity:1;stroke-width:0.26458332" />
    <rect
       style="fill:none;fill-opacity:0;stroke:#000000;stroke-width:0.19170381;stroke-miterlimit:4;stroke-dasharray:none;stroke-opacity:1"
       id="rect4542"
       width="85.596664"
       height="18.204166"
       x="2.8892024"
       y="37.699631" />
    <rect
       style="fill:none;fill-opacity:0;stroke:#000000;stroke-width:0.1898177;stroke-miterlimit:4;stroke-dasharray:none;stroke-opacity:1"
       id="rect4570"
       width="83.920624"
       height="18.204166"
       x="3.7272227"
       y="134.45956" />
    <flowRoot
       xml:space="preserve"
       id="flowRoot4618"
       style="font-style:normal;font-weight:normal;font-size:40px;line-height:1.25;font-family:sans-serif;text-align:center;letter-spacing:0px;word-spacing:0px;text-anchor:middle;fill:#000000;fill-opacity:1;stroke:none"
       transform="matrix(0.26458333,0,0,0.26458333,-45.589287,-10.690781)"><flowRegion
         id="flowRegion4620"
         style="text-align:center;text-anchor:middle"><rect
           id="rect4622"
           width="172.73608"
           height="130.30968"
           x="260.61935"
           y="488.14389"
           style="text-align:center;text-anchor:middle" /></flowRegion><flowPara
         id="flowPara4626"
         style="font-size:26.66666794px;line-height:0.25;text-align:center;text-anchor:middle">foundmarkers?fo</flowPara></flowRoot>    <rect
       style="fill:none;fill-opacity:0;stroke:#000000;stroke-width:0.18242709;stroke-miterlimit:4;stroke-dasharray:none;stroke-opacity:1"
       id="rect4628"
       width="77.512901"
       height="18.204166"
       x="112.62572"
       y="100.16011" />
    <rect
       style="fill:none;fill-opacity:0;stroke:#000000;stroke-width:0.1898177;stroke-miterlimit:4;stroke-dasharray:none;stroke-opacity:1"
       id="rect4670"
       width="83.920624"
       height="18.204166"
       x="3.7272227"
       y="160.34996" />
    <rect
       y="186.24036"
       x="3.7272227"
       height="18.204166"
       width="83.920624"
       id="rect4680"
       style="fill:none;fill-opacity:0;stroke:#000000;stroke-width:0.1898177;stroke-miterlimit:4;stroke-dasharray:none;stroke-opacity:1" />
    <rect
       y="212.13075"
       x="3.7272227"
       height="18.204166"
       width="83.920624"
       id="rect4714"
       style="fill:none;fill-opacity:0;stroke:#000000;stroke-width:0.1898177;stroke-miterlimit:4;stroke-dasharray:none;stroke-opacity:1" />
    <flowRoot
       xml:space="preserve"
       id="flowRoot4730"
       style="fill:black;fill-opacity:1;stroke:none;font-family:sans-serif;font-style:normal;font-weight:normal;font-size:40px;line-height:1.25;letter-spacing:0px;word-spacing:0px"><flowRegion
         id="flowRegion4732"><rect
           id="rect4734"
           width="168.16483"
           height="102.92562"
           x="102.02541"
           y="432.58545" /></flowRegion><flowPara
         id="flowPara4736" /></flowRoot>    <path
       sodipodi:type="star"
       style="fill:none;fill-opacity:0;stroke:#000000;stroke-width:0.26499999;stroke-miterlimit:4;stroke-dasharray:none;stroke-opacity:1"
       id="path4588"
       sodipodi:sides="3"
       sodipodi:cx="46.34523"
       sodipodi:cy="129.55563"
       sodipodi:r1="31.171291"
       sodipodi:r2="15.404759"
       sodipodi:arg1="0.52359878"
       sodipodi:arg2="1.5707963"
       inkscape:flatsided="false"
       inkscape:rounded="0.001"
       inkscape:randomized="0"
       d="m 73.34036,145.14128 c -0.0135,0.0234 -26.968134,-0.18089 -26.995129,-0.18089 -0.027,0 -26.981633,0.20427 -26.995131,0.18089 -0.0135,-0.0234 13.640719,-23.26465 13.654217,-23.28803 0.0135,-0.0234 13.313918,-23.468908 13.340913,-23.468908 0.027,0 13.327415,23.445528 13.340913,23.468908 0.0135,0.0234 13.667715,23.26465 13.654217,23.28803 z"
       inkscape:transform-center-y="-6.0669758"
       transform="matrix(0.93137541,0,0,0.77857639,2.522727,13.760064)" />
    <path
       transform="matrix(0.93137541,0,0,0.77857639,2.522727,161.42966)"
       inkscape:transform-center-y="-6.0669758"
       d="m 73.34036,145.14128 c -0.0135,0.0234 -26.968134,-0.18089 -26.995129,-0.18089 -0.027,0 -26.981633,0.20427 -26.995131,0.18089 -0.0135,-0.0234 13.640719,-23.26465 13.654217,-23.28803 0.0135,-0.0234 13.313918,-23.468908 13.340913,-23.468908 0.027,0 13.327415,23.445528 13.340913,23.468908 0.0135,0.0234 13.667715,23.26465 13.654217,23.28803 z"
       inkscape:randomized="0"
       inkscape:rounded="0.001"
       inkscape:flatsided="false"
       sodipodi:arg2="1.5707963"
       sodipodi:arg1="0.52359878"
       sodipodi:r2="15.404759"
       sodipodi:r1="31.171291"
       sodipodi:cy="129.55563"
       sodipodi:cx="46.34523"
       sodipodi:sides="3"
       id="path4748"
       style="fill:none;fill-opacity:0;stroke:#000000;stroke-width:0.26499999;stroke-miterlimit:4;stroke-dasharray:none;stroke-opacity:1"
       sodipodi:type="star" />
    <circle
       r="5.7462945"
       cy="287.91284"
       cx="45.687534"
       id="circle4833"
       style="fill:#000000;fill-opacity:1;stroke:#000000;stroke-width:0.26458332;stroke-opacity:1" />
    <rect
       y="247.10358"
       x="113.16026"
       height="18.204166"
       width="77.512901"
       id="rect4839"
       style="fill:none;fill-opacity:0;stroke:#000000;stroke-width:0.18242709;stroke-miterlimit:4;stroke-dasharray:none;stroke-opacity:1" />
    <path
       style="fill:none;fill-rule:evenodd;stroke:#000000;stroke-width:0.26499999;stroke-linecap:butt;stroke-linejoin:miter;stroke-miterlimit:4;stroke-dasharray:none;stroke-opacity:1;marker-end:url(#Arrow2Lend)"
       d="m 45.687535,26.790492 0,10.909138"
       id="path4881"
       inkscape:connector-type="polyline"
       inkscape:connector-curvature="3" />
    <path
       style="fill:none;fill-rule:evenodd;stroke:#000000;stroke-width:0.23559117px;stroke-linecap:butt;stroke-linejoin:miter;stroke-opacity:1;marker-end:url(#marker5629)"
       d="m 45.687535,126.50268 v 7.95689"
       id="path5625"
       inkscape:connector-type="polyline"
       inkscape:connector-curvature="3"
       sodipodi:nodetypes="cc" />
    <path
       style="fill:none;fill-rule:evenodd;stroke:#000000;stroke-width:0.26458332px;stroke-linecap:butt;stroke-linejoin:miter;stroke-opacity:1;marker-end:url(#marker6295)"
       d="m 45.687535,152.66373 0,7.68623"
       id="path5805"
       inkscape:connector-type="polyline"
       inkscape:connector-curvature="3" />
    <path
       inkscape:connector-curvature="3"
       inkscape:connector-type="polyline"
       id="path6357"
       d="m 45.687535,152.66373 0,7.68623"
       style="fill:none;fill-rule:evenodd;stroke:#000000;stroke-width:0.26458332px;stroke-linecap:butt;stroke-linejoin:miter;stroke-opacity:1;marker-end:url(#marker6479)" />
    <path
       style="fill:none;fill-rule:evenodd;stroke:#000000;stroke-width:0.26458332px;stroke-linecap:butt;stroke-linejoin:miter;stroke-opacity:1;marker-end:url(#marker6775)"
       d="m 45.687535,178.55413 v 7.68622"
       id="path6509"
       inkscape:connector-type="polyline"
       inkscape:connector-curvature="3" />
    <path
       style="fill:none;fill-rule:evenodd;stroke:#000000;stroke-width:0.26458332px;stroke-linecap:butt;stroke-linejoin:miter;stroke-opacity:1;marker-end:url(#marker6869)"
       d="m 45.687535,204.44452 0,7.68623"
       id="path6511"
       inkscape:connector-type="polyline"
       inkscape:connector-curvature="3" />
    <path
       style="fill:none;fill-rule:evenodd;stroke:#000000;stroke-width:0.26458332px;stroke-linecap:butt;stroke-linejoin:miter;stroke-opacity:1;marker-end:url(#marker6687)"
       d="m 45.687535,230.33491 0,8.03549"
       id="path6513"
       inkscape:connector-type="polyline"
       inkscape:connector-curvature="3" />
    <path
       style="fill:none;fill-rule:evenodd;stroke:#000000;stroke-width:0.26458332px;stroke-linecap:butt;stroke-linejoin:miter;stroke-opacity:1;marker-end:url(#marker7663)"
       d="m 57.828387,256.22902 55.331873,-0.0137"
       id="path6515"
       inkscape:connector-type="polyline"
       inkscape:connector-curvature="3" />
    <path
       style="fill:none;fill-rule:evenodd;stroke:#000000;stroke-width:0.26458332px;stroke-linecap:butt;stroke-linejoin:miter;stroke-opacity:1;marker-end:url(#marker6605)"
       d="m 45.687534,274.48984 0,7.67671"
       id="path6517"
       inkscape:connector-type="polyline"
       inkscape:connector-curvature="3"
       inkscape:connection-end="#circle4833" />
    <path
       style="fill:none;fill-rule:evenodd;stroke:#000000;stroke-width:0.26458332px;stroke-linecap:butt;stroke-linejoin:miter;stroke-opacity:1;marker-end:url(#marker6529)"
       d="M 124.26934,247.10358 73.334907,230.33491"
       id="path6519"
       inkscape:connector-type="polyline"
       inkscape:connector-curvature="3" />
    <rect
       y="64.461143"
       x="3.7272227"
       height="18.204166"
       width="83.920624"
       id="rect7077"
       style="fill:none;fill-opacity:0;stroke:#000000;stroke-width:0.1898177;stroke-miterlimit:4;stroke-dasharray:none;stroke-opacity:1" />
    <path
       style="fill:none;fill-rule:evenodd;stroke:#000000;stroke-width:0.26458332px;stroke-linecap:butt;stroke-linejoin:miter;stroke-opacity:1;marker-end:url(#marker7201)"
       d="m 45.687535,82.66531 0,5.558042"
       id="path7089"
       inkscape:connector-type="polyline"
       inkscape:connector-curvature="3" />
    <path
       style="fill:none;fill-rule:evenodd;stroke:#000000;stroke-width:0.26458332px;stroke-linecap:butt;stroke-linejoin:miter;stroke-opacity:1;marker-end:url(#marker7101)"
       d="m 45.687535,55.903796 0,8.557347"
       id="path7091"
       inkscape:connector-type="polyline"
       inkscape:connector-curvature="3" />
    <path
       style="fill:none;fill-rule:evenodd;stroke:#000000;stroke-width:0.26458332px;stroke-linecap:butt;stroke-linejoin:miter;stroke-opacity:1;marker-end:url(#marker7431)"
       d="m 59.71964,108.65534 52.90608,0.35027"
       id="path7421"
       inkscape:connector-type="polyline"
       inkscape:connector-curvature="3" />
    <path
       style="fill:none;fill-rule:evenodd;stroke:#000000;stroke-width:0.26458332px;stroke-linecap:butt;stroke-linejoin:miter;stroke-opacity:1;marker-end:url(#marker7545)"
       d="M 124.43345,100.16011 72.63625,82.66531"
       id="path7535"
       inkscape:connector-type="polyline"
       inkscape:connector-curvature="3" />
    <flowRoot
       xml:space="preserve"
       id="flowRoot4552"
       style="font-style:normal;font-weight:normal;font-size:40px;line-height:1.25;font-family:sans-serif;text-align:start;letter-spacing:0px;word-spacing:0px;text-anchor:start;fill:#000000;fill-opacity:1;stroke:none"
       transform="matrix(0.26458333,0,0,0.26458333,-47.736741,-29.544206)"><flowRegion
         id="flowRegion4554"
         style="text-align:start;text-anchor:start"><rect
           id="rect4556"
           width="375.71429"
           height="64.285713"
           x="192.85715"
           y="260.37683"
           style="text-align:start;text-anchor:start" /></flowRegion><flowPara
         id="flowPara4558"
         style="font-size:26.66666794px;text-align:start;text-anchor:start">Start AR World Tracking</flowPara></flowRoot>    <flowRoot
       xml:space="preserve"
       id="flowRoot4578"
       style="font-style:normal;font-weight:normal;font-size:40px;line-height:1.25;font-family:sans-serif;text-align:start;letter-spacing:0px;word-spacing:0px;text-anchor:start;fill:#000000;fill-opacity:1;stroke:none"
       transform="matrix(0.26458333,0,0,0.26458333,-41.669925,67.21574)"><flowRegion
         id="flowRegion4574"
         style="text-align:start;text-anchor:start"><rect
           id="rect4572"
           width="375.71429"
           height="64.285713"
           x="192.85715"
           y="260.37683"
           style="text-align:start;text-anchor:start" /></flowRegion><flowPara
         id="flowPara4576"
         style="font-size:26.66666794px;text-align:start;text-anchor:start">Set new world origin</flowPara></flowRoot>    <flowRoot
       xml:space="preserve"
       id="flowRoot4642"
       style="font-style:normal;font-weight:normal;font-size:40px;line-height:0.5;font-family:sans-serif;text-align:center;letter-spacing:0px;word-spacing:0px;text-anchor:middle;fill:#000000;fill-opacity:1;stroke:none"
       transform="matrix(0.26458333,0,0,0.26458333,-7.6906009,-27.955809)"><flowRegion
         id="flowRegion4644"
         style="line-height:0.5;text-align:center;text-anchor:middle"><rect
           id="rect4646"
           width="365.23175"
           height="68.803131"
           x="417.82147"
           y="484.4169"
           style="line-height:0.5;text-align:center;text-anchor:middle" /></flowRegion><flowPara
         id="flowPara4648"
         style="font-size:26.66666794px;line-height:1.25;text-align:center;text-anchor:middle">User Interaction:</flowPara><flowPara
         id="flowPara4650"
         style="font-size:26.66666794px;line-height:0.5;text-align:center;text-anchor:middle">Reposition</flowPara></flowRoot>    <flowRoot
       xml:space="preserve"
       id="flowRoot4678"
       style="font-style:normal;font-weight:normal;font-size:40px;line-height:1.25;font-family:sans-serif;text-align:start;letter-spacing:0px;word-spacing:0px;text-anchor:start;fill:#000000;fill-opacity:1;stroke:none"
       transform="matrix(0.26458333,0,0,0.26458333,-41.669925,93.106129)"><flowRegion
         id="flowRegion4674"
         style="text-align:start;text-anchor:start"><rect
           id="rect4672"
           width="375.71429"
           height="64.285713"
           x="192.85715"
           y="260.37683"
           style="text-align:start;text-anchor:start" /></flowRegion><flowPara
         id="flowPara4676"
         style="font-size:26.66666794px;text-align:start;text-anchor:start">Load package data</flowPara></flowRoot>    <flowRoot
       transform="matrix(0.26458333,0,0,0.26458333,-115.50717,59.091457)"
       style="font-style:normal;font-weight:normal;font-size:40px;line-height:0.5;font-family:sans-serif;text-align:center;letter-spacing:0px;word-spacing:0px;text-anchor:middle;fill:#000000;fill-opacity:1;stroke:none"
       id="flowRoot4712"
       xml:space="preserve"><flowRegion
         style="line-height:0.5;text-align:center;text-anchor:middle"
         id="flowRegion4706"><rect
           style="line-height:0.5;text-align:center;text-anchor:middle"
           y="484.4169"
           x="417.82147"
           height="68.803131"
           width="365.23175"
           id="rect4704" /></flowRegion><flowPara
         style="font-size:26.66666794px;line-height:1.25;text-align:center;text-anchor:middle"
         id="flowPara4708">Guide user</flowPara><flowPara
         style="font-size:26.66666794px;line-height:0.5;text-align:center;text-anchor:middle"
         id="flowPara4710">toward package</flowPara></flowRoot>    <flowRoot
       transform="matrix(0.26458333,0,0,0.26458333,-41.669925,144.8869)"
       style="font-style:normal;font-weight:normal;font-size:40px;line-height:1.25;font-family:sans-serif;text-align:start;letter-spacing:0px;word-spacing:0px;text-anchor:start;fill:#000000;fill-opacity:1;stroke:none"
       id="flowRoot4722"
       xml:space="preserve"><flowRegion
         style="text-align:start;text-anchor:start"
         id="flowRegion4718"><rect
           style="text-align:start;text-anchor:start"
           y="260.37683"
           x="192.85715"
           height="64.285713"
           width="375.71429"
           id="rect4716" /></flowRegion><flowPara
         style="font-size:26.66666794px;text-align:start;text-anchor:start"
         id="flowPara4720">Identify package</flowPara></flowRoot>    <flowRoot
       transform="matrix(0.26458333,0,0,0.26458333,-113.51274,-18.982041)"
       style="font-style:normal;font-weight:normal;font-size:40px;line-height:0.5;font-family:sans-serif;text-align:center;letter-spacing:0px;word-spacing:0px;text-anchor:middle;fill:#000000;fill-opacity:1;stroke:none"
       id="flowRoot4746"
       xml:space="preserve"><flowRegion
         style="line-height:0.5;text-align:center;text-anchor:middle"
         id="flowRegion4740"><rect
           style="line-height:0.5;text-align:center;text-anchor:middle"
           y="484.4169"
           x="417.82147"
           height="68.803131"
           width="365.23175"
           id="rect4738" /></flowRegion><flowPara
         style="font-size:26.66666794px;line-height:1.25;text-align:center;text-anchor:middle"
         id="flowPara4742">found</flowPara><flowPara
         style="font-size:26.66666794px;line-height:0.5;text-align:center;text-anchor:middle"
         id="flowPara4744">markers?</flowPara></flowRoot>    <flowRoot
       xml:space="preserve"
       id="flowRoot4758"
       style="font-style:normal;font-weight:normal;font-size:40px;line-height:0.5;font-family:sans-serif;text-align:center;letter-spacing:0px;word-spacing:0px;text-anchor:middle;fill:#000000;fill-opacity:1;stroke:none"
       transform="matrix(0.26458333,0,0,0.26458333,-113.51275,128.68756)"><flowRegion
         id="flowRegion4752"
         style="line-height:0.5;text-align:center;text-anchor:middle"><rect
           id="rect4750"
           width="365.23175"
           height="68.803131"
           x="417.82147"
           y="484.4169"
           style="line-height:0.5;text-align:center;text-anchor:middle" /></flowRegion><flowPara
         id="flowPara4754"
         style="font-size:26.66666794px;line-height:1.25;text-align:center;text-anchor:middle">found</flowPara><flowPara
         id="flowPara4756"
         style="font-size:26.66666794px;line-height:0.5;text-align:center;text-anchor:middle">package?</flowPara></flowRoot>    <flowRoot
       transform="matrix(0.26458333,0,0,0.26458333,-7.1560619,119.68742)"
       style="font-style:normal;font-weight:normal;font-size:40px;line-height:0.5;font-family:sans-serif;text-align:center;letter-spacing:0px;word-spacing:0px;text-anchor:middle;fill:#000000;fill-opacity:1;stroke:none"
       id="flowRoot4849"
       xml:space="preserve"><flowRegion
         style="line-height:0.5;text-align:center;text-anchor:middle"
         id="flowRegion4843"><rect
           style="line-height:0.5;text-align:center;text-anchor:middle"
           y="484.4169"
           x="417.82147"
           height="68.803131"
           width="365.23175"
           id="rect4841" /></flowRegion><flowPara
         style="font-size:26.66666794px;line-height:1.25;text-align:center;text-anchor:middle"
         id="flowPara4845">User Interaction:</flowPara><flowPara
         style="font-size:26.66666794px;line-height:0.5;text-align:center;text-anchor:middle"
         id="flowPara4847">Look for package</flowPara></flowRoot>    <flowRoot
       transform="matrix(0.26458333,0,0,0.26458333,-41.669925,-2.7826848)"
       style="font-style:normal;font-weight:normal;font-size:40px;line-height:1.25;font-family:sans-serif;text-align:start;letter-spacing:0px;word-spacing:0px;text-anchor:start;fill:#000000;fill-opacity:1;stroke:none"
       id="flowRoot7085"
       xml:space="preserve"><flowRegion
         style="text-align:start;text-anchor:start"
         id="flowRegion7081"><rect
           style="text-align:start;text-anchor:start"
           y="260.37683"
           x="192.85715"
           height="64.285713"
           width="375.71429"
           id="rect7079" /></flowRegion><flowPara
         style="font-size:26.66666794px;text-align:start;text-anchor:start"
         id="flowPara7083">Look for AR markers</flowPara></flowRoot>    <flowRoot
       xml:space="preserve"
       id="flowRoot7779"
       style="font-style:normal;font-weight:normal;font-size:18.66666603px;line-height:1.25;font-family:sans-serif;letter-spacing:0px;word-spacing:0px;fill:#000000;fill-opacity:1;stroke:none"
       transform="matrix(0.26458333,0,0,0.26458333,10.943244,8.3758283)"><flowRegion
         id="flowRegion7781"
         style="font-size:18.66666603px"><rect
           id="rect7783"
           width="77.14286"
           height="42.142857"
           x="256.42856"
           y="359.66254"
           style="font-size:18.66666603px" /></flowRegion><flowPara
         id="flowPara7785">no</flowPara></flowRoot>    <flowRoot
       transform="matrix(0.26458333,0,0,0.26458333,-19.483839,32.377314)"
       style="font-style:normal;font-weight:normal;font-size:18.66666603px;line-height:1.25;font-family:sans-serif;letter-spacing:0px;word-spacing:0px;fill:#000000;fill-opacity:1;stroke:none"
       id="flowRoot7835"
       xml:space="preserve"><flowRegion
         style="font-size:18.66666603px"
         id="flowRegion7831"><rect
           style="font-size:18.66666603px"
           y="359.66254"
           x="256.42856"
           height="42.142857"
           width="77.14286"
           id="rect7829" /></flowRegion><flowPara
         id="flowPara7833">yes</flowPara></flowRoot>    <flowRoot
       xml:space="preserve"
       id="flowRoot7843"
       style="font-style:normal;font-weight:normal;font-size:18.66666603px;line-height:1.25;font-family:sans-serif;letter-spacing:0px;word-spacing:0px;fill:#000000;fill-opacity:1;stroke:none"
       transform="matrix(0.26458333,0,0,0.26458333,-20.239791,179.22105)"><flowRegion
         id="flowRegion7839"
         style="font-size:18.66666603px"><rect
           id="rect7837"
           width="77.14286"
           height="42.142857"
           x="256.42856"
           y="359.66254"
           style="font-size:18.66666603px" /></flowRegion><flowPara
         id="flowPara7841">yes</flowPara></flowRoot>    <flowRoot
       transform="matrix(0.26458333,0,0,0.26458333,9.0533633,154.84159)"
       style="font-style:normal;font-weight:normal;font-size:18.66666603px;line-height:1.25;font-family:sans-serif;letter-spacing:0px;word-spacing:0px;fill:#000000;fill-opacity:1;stroke:none"
       id="flowRoot7851"
       xml:space="preserve"><flowRegion
         style="font-size:18.66666603px"
         id="flowRegion7847"><rect
           style="font-size:18.66666603px"
           y="359.66254"
           x="256.42856"
           height="42.142857"
           width="77.14286"
           id="rect7845" /></flowRegion><flowPara
         id="flowPara7849">no</flowPara></flowRoot>  </g>
</svg>
